<svg width="20" height="21" viewBox="0 0 20 21" fill="none" xmlns="http://www.w3.org/2000/svg">
<g clip-path="url(#clip0_29_5539)">
<path d="M1 3.5C1 2.39543 1.89543 1.5 3 1.5H17C18.1046 1.5 19 2.39543 19 3.5V17.5C19 18.6046 18.1046 19.5 17 19.5H3C1.89543 19.5 1 18.6046 1 17.5V3.5Z" fill="#D2295C"/>
<path d="M6 6.5L14 14.5" stroke="white" stroke-width="1.5" stroke-linecap="round" stroke-linejoin="round"/>
<path d="M14 6.5L6 14.5" stroke="white" stroke-width="1.5" stroke-linecap="round" stroke-linejoin="round"/>
</g>
<path d="M3 2.5H17V0.5H3V2.5ZM18 3.5V17.5H20V3.5H18ZM17 18.5H3V20.5H17V18.5ZM2 17.5V3.5H0V17.5H2ZM3 18.5C2.44772 18.5 2 18.0523 2 17.5H0C0 19.1569 1.34315 20.5 3 20.5V18.5ZM18 17.5C18 18.0523 17.5523 18.5 17 18.5V20.5C18.6569 20.5 20 19.1569 20 17.5H18ZM17 2.5C17.5523 2.5 18 2.94772 18 3.5H20C20 1.84315 18.6569 0.5 17 0.5V2.5ZM3 0.5C1.34315 0.5 0 1.84315 0 3.5H2C2 2.94772 2.44772 2.5 3 2.5V0.5Z" fill="#D2295C"/>
<defs>
<clipPath id="clip0_29_5539">
<path d="M1 3.5C1 2.39543 1.89543 1.5 3 1.5H17C18.1046 1.5 19 2.39543 19 3.5V17.5C19 18.6046 18.1046 19.5 17 19.5H3C1.89543 19.5 1 18.6046 1 17.5V3.5Z" fill="white"/>
</clipPath>
</defs>
</svg>
